{
	"defaultSeverity": "error",
	"rulesDirectory": ["tslint-plugin-prettier"],
	"extends": ["tslint:recommended", "tslint-react", "tslint-config-prettier"],
	"rules": {
		"prettier": false,
		"variable-name": [
			true,
			"ban-keywords",
			"check-format",
			"allow-pascal-case",
			"allow-leading-underscore"
		],
		"indent": [true, "tabs"],
		"interface-name": false,
		"import-name": false,
		"ordered-imports": false,
		"object-literal-sort-keys": false,
		"object-literal-shorthand": false,
		"jsx-no-lambda": false,
		"no-console": [true, "debug", "info", "time", "timeEnd", "trace"],
		"no-empty-interface": false,
		"class-name": true,
		"curly": true,
		"label-position": true,
		"max-line-length": [true, 140],
		"no-arg": true,
		"no-bitwise": true,
		"no-construct": true,
		"no-debugger": true,
		"no-duplicate-variable": true,
		"no-empty": true,
		"no-eval": true,
		"no-shadowed-variable": false,
		"no-string-literal": false,
		"no-switch-case-fall-through": true,
		"no-trailing-whitespace": true,
		"no-unused-expression": true,
		"no-unused-variable": [false],
		"no-template-curly-in-string": "off",
		"no-use-before-declare": false,
		"one-line": [true, "check-open-brace", "check-catch", "check-else", "check-whitespace"],
		"quotemark": [false, "single"],
		"semicolon": true,
		"trailing-comma": true,
		"triple-equals": [true, "allow-null-check"],
		"typedef-whitespace": [
			true,
			{
				"call-signature": "nospace",
				"index-signature": "nospace",
				"parameter": "nospace",
				"property-declaration": "nospace",
				"variable-declaration": "nospace"
			}
		],
		"whitespace": [
			true,
			"check-branch",
			"check-decl",
			"check-operator",
			"check-separator",
			"check-type"
		]
	}
}
